…
#Join the table with patients record
patients_n_visits <- 
  left_join(x = patient,
            y = visit_n,
            by = "patient_id") %>% 
  
  #change NA to 0 for the patients who have never visited GP
  mutate(visit_n = replace_na(visit_n,0)) %>% 
  
  arrange(desc(visit_n)) %>% 
  
  print()

## # A tibble: 1,657 × 5
##    patient_id date_of_birth gender registration_date visit_n
##         <dbl> <chr>         <chr>  <chr>               <int>
##  1     413591 31-Mar-1936   Female 31-Mar-1996            25
##  2     449175 25-Jul-1996   Female 08-Nov-1996            25
##  3     203029 18-Jul-1964   Female 28-Oct-2019            24
##  4     924706 18-Dec-1950   Female 31-Mar-1996            24
##  5     596712 12-Dec-1970   Female 06-May-1994            23
##  6     390794 11-Sep-1984   Female 31-Mar-1996            21
##  7     357148 31-Dec-1984   Female 06-Jan-2017            19
##  8     693562 29-Nov-1948   Female 15-Jan-1998            19
##  9     425567 18-Dec-1966   Male   31-Mar-1996            18
## 10     617753 17-Jul-1976   Female 02-May-2012            16
## # ℹ 1,647 more rows
…
patients_n_visits_1 <-  patients_n_visits %>% 
  
  #convert character to date
  mutate(date_of_birth = dmy(date_of_birth)) %>% 
  
  #calculate age
  mutate(age = year(today()) - year(date_of_birth)) %>% 
  
  print()

## # A tibble: 1,657 × 6
##    patient_id date_of_birth gender registration_date visit_n   age
##         <dbl> <date>        <chr>  <chr>               <int> <dbl>
##  1     413591 1936-03-31    Female 31-Mar-1996            25    87
##  2     449175 1996-07-25    Female 08-Nov-1996            25    27
##  3     203029 1964-07-18    Female 28-Oct-2019            24    59
##  4     924706 1950-12-18    Female 31-Mar-1996            24    73
##  5     596712 1970-12-12    Female 06-May-1994            23    53
##  6     390794 1984-09-11    Female 31-Mar-1996            21    39
##  7     357148 1984-12-31    Female 06-Jan-2017            19    39
##  8     693562 1948-11-29    Female 15-Jan-1998            19    75
##  9     425567 1966-12-18    Male   31-Mar-1996            18    57
## 10     617753 1976-07-17    Female 02-May-2012            16    47
## # ℹ 1,647 more rows

#Assign patients to "Early_childhood(<8) and elderly(>65)" and "Others"

#Create a new variable to label patients
patients_n_visits_1 <-patients_n_visits_1 %>% 
  mutate(age_group = case_when(age %in% (8:65) ~ "Others",
                               !age %in% (8:65) ~ "Under 8 or above 65")) %>% 
  print()

## # A tibble: 1,657 × 7
##    patient_id date_of_birth gender registration_date visit_n   age age_group    
##         <dbl> <date>        <chr>  <chr>               <int> <dbl> <chr>        
##  1     413591 1936-03-31    Female 31-Mar-1996            25    87 Under 8 or a…
##  2     449175 1996-07-25    Female 08-Nov-1996            25    27 Others       
##  3     203029 1964-07-18    Female 28-Oct-2019            24    59 Others       
##  4     924706 1950-12-18    Female 31-Mar-1996            24    73 Under 8 or a…
##  5     596712 1970-12-12    Female 06-May-1994            23    53 Others       
##  6     390794 1984-09-11    Female 31-Mar-1996            21    39 Others       
##  7     357148 1984-12-31    Female 06-Jan-2017            19    39 Others       
##  8     693562 1948-11-29    Female 15-Jan-1998            19    75 Under 8 or a…
##  9     425567 1966-12-18    Male   31-Mar-1996            18    57 Others       
## 10     617753 1976-07-17    Female 02-May-2012            16    47 Others       
## # ℹ 1,647 more rows
…
patients_n_visits_2 <-  patients_n_visits_1 %>% 
  
  #convert character to date
  mutate(registration_date = dmy(registration_date)) %>%
  
  #create a new variable to show their registration cohort
  mutate(cohort = case_when(registration_date > "2023-03-01" ~ "New",
                            registration_date < "2023-03-01" ~ "Old")) %>% 
  
  print()

## # A tibble: 1,657 × 8
##    patient_id date_of_birth gender registration_date visit_n   age age_group    
##         <dbl> <date>        <chr>  <date>              <int> <dbl> <chr>        
##  1     413591 1936-03-31    Female 1996-03-31             25    87 Under 8 or a…
##  2     449175 1996-07-25    Female 1996-11-08             25    27 Others       
##  3     203029 1964-07-18    Female 2019-10-28             24    59 Others       
##  4     924706 1950-12-18    Female 1996-03-31             24    73 Under 8 or a…
##  5     596712 1970-12-12    Female 1994-05-06             23    53 Others       
##  6     390794 1984-09-11    Female 1996-03-31             21    39 Others       
##  7     357148 1984-12-31    Female 2017-01-06             19    39 Others       
##  8     693562 1948-11-29    Female 1998-01-15             19    75 Under 8 or a…
##  9     425567 1966-12-18    Male   1996-03-31             18    57 Others       
## 10     617753 1976-07-17    Female 2012-05-02             16    47 Others       
## # ℹ 1,647 more rows
## # ℹ 1 more variable: cohort <chr>
…
  #Join the chronic disease table with patients table
  left_join(x = patients_n_visits_2,
            y = chronicDisease_1,
            by = "patient_id") %>% 
  
  #convert NA to 0
  mutate(n_disease = replace_na(n_disease,0)) %>% 
  
  #label patients as have(Yes) and do not have(No) chronic disease
  mutate(chronic_disease = case_when(n_disease > 0 ~ "Yes",
                                     n_disease == 0 ~ "No")) %>% 
  
  print()

## # A tibble: 1,657 × 10
##    patient_id date_of_birth gender registration_date visit_n   age age_group    
##         <dbl> <date>        <chr>  <date>              <int> <dbl> <chr>        
##  1     413591 1936-03-31    Female 1996-03-31             25    87 Under 8 or a…
##  2     449175 1996-07-25    Female 1996-11-08             25    27 Others       
##  3     203029 1964-07-18    Female 2019-10-28             24    59 Others       
##  4     924706 1950-12-18    Female 1996-03-31             24    73 Under 8 or a…
##  5     596712 1970-12-12    Female 1994-05-06             23    53 Others       
##  6     390794 1984-09-11    Female 1996-03-31             21    39 Others       
##  7     357148 1984-12-31    Female 2017-01-06             19    39 Others       
##  8     693562 1948-11-29    Female 1998-01-15             19    75 Under 8 or a…
##  9     425567 1966-12-18    Male   1996-03-31             18    57 Others       
## 10     617753 1976-07-17    Female 2012-05-02             16    47 Others       
## # ℹ 1,647 more rows
## # ℹ 3 more variables: cohort <chr>, n_disease <dbl>, chronic_disease <chr>
…
#join it with the patients table
patients_n_visits_4 <- left_join(x = patients_n_visits_3,
                                 y = app_time,
                                 by = "patient_id") %>% 
  
  #convert NA to 0
  mutate(avg_time = replace_na(avg_time,0)) %>% 
  
  print()

## # A tibble: 1,657 × 11
##    patient_id date_of_birth gender registration_date visit_n   age age_group    
##         <dbl> <date>        <chr>  <date>              <int> <dbl> <chr>        
##  1     413591 1936-03-31    Female 1996-03-31             25    87 Under 8 or a…
##  2     449175 1996-07-25    Female 1996-11-08             25    27 Others       
##  3     203029 1964-07-18    Female 2019-10-28             24    59 Others       
##  4     924706 1950-12-18    Female 1996-03-31             24    73 Under 8 or a…
##  5     596712 1970-12-12    Female 1994-05-06             23    53 Others       
##  6     390794 1984-09-11    Female 1996-03-31             21    39 Others       
##  7     357148 1984-12-31    Female 2017-01-06             19    39 Others       
##  8     693562 1948-11-29    Female 1998-01-15             19    75 Under 8 or a…
##  9     425567 1966-12-18    Male   1996-03-31             18    57 Others       
## 10     617753 1976-07-17    Female 2012-05-02             16    47 Others       
## # ℹ 1,647 more rows
## # ℹ 4 more variables: cohort <chr>, n_disease <dbl>, chronic_disease <chr>,
## #   avg_time <dbl>
…
  select(patient_id, app_interval_int)
  
  #Join it with patients table and omit NAs
patients_n_visits_5 <- left_join(x = patients_n_visits_4,
                                 y = app_interval,
                                 by = "patient_id") %>% 
  
  #convert NA to 0
  mutate(app_interval_int = replace_na(app_interval_int,0)) %>% 
  
  print()

## # A tibble: 1,657 × 12
##    patient_id date_of_birth gender registration_date visit_n   age age_group    
##         <dbl> <date>        <chr>  <date>              <int> <dbl> <chr>        
##  1     413591 1936-03-31    Female 1996-03-31             25    87 Under 8 or a…
##  2     449175 1996-07-25    Female 1996-11-08             25    27 Others       
##  3     203029 1964-07-18    Female 2019-10-28             24    59 Others       
##  4     924706 1950-12-18    Female 1996-03-31             24    73 Under 8 or a…
##  5     596712 1970-12-12    Female 1994-05-06             23    53 Others       
##  6     390794 1984-09-11    Female 1996-03-31             21    39 Others       
##  7     357148 1984-12-31    Female 2017-01-06             19    39 Others       
##  8     693562 1948-11-29    Female 1998-01-15             19    75 Under 8 or a…
##  9     425567 1966-12-18    Male   1996-03-31             18    57 Others       
## 10     617753 1976-07-17    Female 2012-05-02             16    47 Others       
## # ℹ 1,647 more rows
## # ℹ 5 more variables: cohort <chr>, n_disease <dbl>, chronic_disease <chr>,
## #   avg_time <dbl>, app_interval_int <dbl>
…
  #calculate the percentages
  mutate(patient_pct = round(patient_n/sum(patient_n)*100,2),
         visit_pct = round(visit_total_n/sum(visit_total_n)*100,2)) %>% 
  
  #calculate the cumulative percentages
  arrange(desc(visit_n)) %>% 
  mutate(patient_cumpct = cumsum(patient_pct),
         visit_cumpct = cumsum(visit_pct)) %>% 
  
  print()

## # A tibble: 23 × 7
##    visit_n patient_n visit_total_n patient_pct visit_pct patient_cumpct
##      <int>     <int>         <int>       <dbl>     <dbl>          <dbl>
##  1      25         2            50        0.12      1.4            0.12
##  2      24         2            48        0.12      1.35           0.24
##  3      23         1            23        0.06      0.65           0.3 
##  4      21         1            21        0.06      0.59           0.36
##  5      19         2            38        0.12      1.07           0.48
##  6      18         1            18        0.06      0.5            0.54
##  7      16         3            48        0.18      1.35           0.72
##  8      15         5            75        0.3       2.1            1.02
##  9      14         5            70        0.3       1.96           1.32
## 10      13         8           104        0.48      2.92           1.8 
## # ℹ 13 more rows
## # ℹ 1 more variable: visit_cumpct <dbl>
…
Label the patients as Frequent and Non-frequent.

patients_n_visits_6 <- 
  patients_n_visits_5 %>% 
  mutate(segment = case_when(visit_n >= 7 ~ "Frequent",
                             visit_n < 7 ~ "Non-frequent")) %>% 
  print()

## # A tibble: 1,657 × 13
##    patient_id date_of_birth gender registration_date visit_n   age age_group    
##         <dbl> <date>        <chr>  <date>              <int> <dbl> <chr>        
##  1     413591 1936-03-31    Female 1996-03-31             25    87 Under 8 or a…
##  2     449175 1996-07-25    Female 1996-11-08             25    27 Others       
##  3     203029 1964-07-18    Female 2019-10-28             24    59 Others       
##  4     924706 1950-12-18    Female 1996-03-31             24    73 Under 8 or a…
##  5     596712 1970-12-12    Female 1994-05-06             23    53 Others       
##  6     390794 1984-09-11    Female 1996-03-31             21    39 Others       
##  7     357148 1984-12-31    Female 2017-01-06             19    39 Others       
##  8     693562 1948-11-29    Female 1998-01-15             19    75 Under 8 or a…
##  9     425567 1966-12-18    Male   1996-03-31             18    57 Others       
## 10     617753 1976-07-17    Female 2012-05-02             16    47 Others       
## # ℹ 1,647 more rows
## # ℹ 6 more variables: cohort <chr>, n_disease <dbl>, chronic_disease <chr>,
## #   avg_time <dbl>, app_interval_int <dbl>, segment <chr>
…
  #calculate the percentages
  mutate(patient_pct = round(patient_n/sum(patient_n)*100,2),
         visit_pct = round(visit_total_n/sum(visit_total_n)*100,2)) %>% 
  
  #calculate the cumulative percentages
  arrange(desc(visit_n)) %>% 
  mutate(patient_cumpct = cumsum(patient_pct),
         visit_cumpct = cumsum(visit_pct)) %>% 
  
  print()

## # A tibble: 23 × 7
##    visit_n patient_n visit_total_n patient_pct visit_pct patient_cumpct
##      <int>     <int>         <int>       <dbl>     <dbl>          <dbl>
##  1      25         2            50        0.15      1.42           0.15
##  2      24         2            48        0.15      1.36           0.3 
##  3      23         1            23        0.08      0.65           0.38
##  4      21         1            21        0.08      0.6            0.46
##  5      19         2            38        0.15      1.08           0.61
##  6      18         1            18        0.08      0.51           0.69
##  7      16         3            48        0.23      1.36           0.92
##  8      15         5            75        0.38      2.13           1.3 
##  9      14         5            70        0.38      1.98           1.68
## 10      13         8           104        0.62      2.95           2.3 
## # ℹ 13 more rows
## # ℹ 1 more variable: visit_cumpct <dbl>
…
Identify Inappropriate Usage

Filter for frequent patients in the old cohort.

patients_oldco <- patients_n_visits_6 %>% 
  
  #Filter only for old cohort
  filter(cohort == "Old"&
           segment == "Frequent") %>% 
  
  print()

## # A tibble: 161 × 13
##    patient_id date_of_birth gender registration_date visit_n   age age_group    
##         <dbl> <date>        <chr>  <date>              <int> <dbl> <chr>        
##  1     413591 1936-03-31    Female 1996-03-31             25    87 Under 8 or a…
##  2     449175 1996-07-25    Female 1996-11-08             25    27 Others       
##  3     203029 1964-07-18    Female 2019-10-28             24    59 Others       
##  4     924706 1950-12-18    Female 1996-03-31             24    73 Under 8 or a…
##  5     596712 1970-12-12    Female 1994-05-06             23    53 Others       
##  6     390794 1984-09-11    Female 1996-03-31             21    39 Others       
##  7     357148 1984-12-31    Female 2017-01-06             19    39 Others       
##  8     693562 1948-11-29    Female 1998-01-15             19    75 Under 8 or a…
##  9     425567 1966-12-18    Male   1996-03-31             18    57 Others       
## 10     617753 1976-07-17    Female 2012-05-02             16    47 Others       
## # ℹ 151 more rows
## # ℹ 6 more variables: cohort <chr>, n_disease <dbl>, chronic_disease <chr>,
## #   avg_time <dbl>, app_interval_int <dbl>, segment <chr>
…
Shorter average planned time;

Shorter Intervals between appointments;

# first for vulnerable patients
patients_oldco_sus <- patients_oldco %>%
  
  # Shorter average planned time
  filter(avg_time<median(avg_time) | 
         # Shorter Intervals between appointments
         app_interval_int<median(app_interval_int)) %>% 
  
  print()

## # A tibble: 121 × 13
##    patient_id date_of_birth gender registration_date visit_n   age age_group    
##         <dbl> <date>        <chr>  <date>              <int> <dbl> <chr>        
##  1     413591 1936-03-31    Female 1996-03-31             25    87 Under 8 or a…
##  2     449175 1996-07-25    Female 1996-11-08             25    27 Others       
##  3     203029 1964-07-18    Female 2019-10-28             24    59 Others       
##  4     924706 1950-12-18    Female 1996-03-31             24    73 Under 8 or a…
##  5     596712 1970-12-12    Female 1994-05-06             23    53 Others       
##  6     390794 1984-09-11    Female 1996-03-31             21    39 Others       
##  7     357148 1984-12-31    Female 2017-01-06             19    39 Others       
##  8     693562 1948-11-29    Female 1998-01-15             19    75 Under 8 or a…
##  9     425567 1966-12-18    Male   1996-03-31             18    57 Others       
## 10     617753 1976-07-17    Female 2012-05-02             16    47 Others       
## # ℹ 111 more rows
## # ℹ 6 more variables: cohort <chr>, n_disease <dbl>, chronic_disease <chr>,
## #   avg_time <dbl>, app_interval_int <dbl>, segment <chr>

patients_oldco_sus_notvul <- patients_oldco_sus %>% 
  filter(age_group == "Others" &
         chronic_disease == "No") %>% 
  print()

## # A tibble: 45 × 13
##    patient_id date_of_birth gender registration_date visit_n   age age_group
##         <dbl> <date>        <chr>  <date>              <int> <dbl> <chr>    
##  1     449175 1996-07-25    Female 1996-11-08             25    27 Others   
##  2     390794 1984-09-11    Female 1996-03-31             21    39 Others   
##  3     357148 1984-12-31    Female 2017-01-06             19    39 Others   
##  4     425567 1966-12-18    Male   1996-03-31             18    57 Others   
##  5     617753 1976-07-17    Female 2012-05-02             16    47 Others   
##  6     818746 1984-10-28    Female 2021-06-02             16    39 Others   
##  7     287807 1969-07-20    Female 1996-03-31             14    54 Others   
##  8     925346 2005-05-06    Female 2005-07-06             14    18 Others   
##  9     639942 1986-06-14    Female 2005-03-07             13    37 Others   
## 10     733389 1993-02-07    Female 2022-01-25             13    30 Others   
## # ℹ 35 more rows
## # ℹ 6 more variables: cohort <chr>, n_disease <dbl>, chronic_disease <chr>,
## #   avg_time <dbl>, app_interval_int <dbl>, segment <chr>
…
