…
  #transform the table in to long format
  pivot_longer(cols = c("biofuel", "coal", "gas", 
         "hydro", "nuclear", "oil",
         "other_renewable", "solar", "wind"),
         names_to="energy_type",
         values_to = "energy_usage")

print(energy_china)

## # A tibble: 288 × 3
##     year energy_type     energy_usage
##    <dbl> <chr>                  <dbl>
##  1  1990 biofuel               NA    
##  2  1990 coal                 441.   
##  3  1990 gas                    2.77 
##  4  1990 hydro                127.   
##  5  1990 nuclear                0    
##  6  1990 oil                   50.4  
##  7  1990 other_renewable       NA    
##  8  1990 solar                  0.002
##  9  1990 wind                   0.002
## 10  1991 biofuel               NA    
## # ℹ 278 more rows
…
