…
Write a paragraph discussing the output of the following

Test results by genre: Action, Animation, Crime, Fantasy and Mystery have more films that pass than films that fail, whereas in Adventure, Biography and Drama, pass/fail is close to half-half. We also have Comedy and Horror that have more passes than fails.

Test results by rating: films in all the ratings have more fails than passes. However, films that targeted general audiences and are PG have more passes than NC-17 and R rating films.

bechdel %>% 
  group_by(genre, test) %>%
  summarise(n = n()) %>% 
  mutate(prop = n/sum(n))

## `summarise()` has grouped output by 'genre'. You can override using the
## `.groups` argument.

## # A tibble: 24 × 4
## # Groups:   genre [14]
##    genre     test      n  prop
##    <chr>     <fct> <int> <dbl>
##  1 Action    Fail    260 0.707
##  2 Action    Pass    108 0.293
##  3 Adventure Fail     52 0.559
##  4 Adventure Pass     41 0.441
##  5 Animation Fail     63 0.677
##  6 Animation Pass     30 0.323
##  7 Biography Fail     36 0.554
##  8 Biography Pass     29 0.446
##  9 Comedy    Fail    138 0.427
## 10 Comedy    Pass    185 0.573
## # ℹ 14 more rows
…
The ROC plot for decision tree shows that the AUC is slightly bigger than half of the square, meaning that the decision tree model is a little bit better than random guessing, but not too much.

tree_preds <- tree_mod %>% 
  fit_resamples(
    test ~ metascore + imdb_rating, 
    resamples = bechdel_folds,
    control = control_resamples(save_pred = TRUE) #<<
  )

# What does the data for ROC look like?
tree_preds %>% 
  collect_predictions() %>% 
  roc_curve(truth = test, .pred_Fail)  

## # A tibble: 29 × 3
##    .threshold specificity sensitivity
##         <dbl>       <dbl>       <dbl>
##  1   -Inf         0             1    
##  2      0.262     0             1    
##  3      0.317     0.00201       0.989
##  4      0.373     0.00805       0.982
##  5      0.440     0.0181        0.976
##  6      0.459     0.0443        0.943
##  7      0.460     0.0765        0.924
##  8      0.464     0.115         0.901
##  9      0.465     0.147         0.887
## 10      0.465     0.191         0.864
## # ℹ 19 more rows
…
