…
prior_mental_illness
did the shooter show evidence of mental illness prior to the incident?

Explore the data

Specific questions

Generate a data frame that summarizes the number of mass shootings per year.

mass_shootings %>% 
  group_by(year) %>% 
  summarize(count = n())

## # A tibble: 37 × 2
##     year count
##    <dbl> <int>
##  1  1982     1
##  2  1984     2
##  3  1986     1
##  4  1987     1
##  5  1988     1
##  6  1989     2
##  7  1990     1
##  8  1991     3
##  9  1992     2
## 10  1993     4
## # ℹ 27 more rows
…
Generate a boxplot visualizing the number of total victims, by type of location.

#Create a table that shows the number of total victims in each case by type of location
victims_location_type <- 
  mass_shootings %>%
  select(location_type,
         total_victims)

print(victims_location_type)

## # A tibble: 125 × 2
##    location_type total_victims
##    <chr>                 <dbl>
##  1 School                   11
##  2 Workplace                 9
##  3 Workplace                15
##  4 Workplace                 5
##  5 Workplace                10
##  6 Workplace                 9
##  7 Workplace                 4
##  8 Workplace                 5
##  9 Other                     7
## 10 Military                 11
## # ℹ 115 more rows
…
Redraw the same plot, but remove the Las Vegas Strip massacre from the dataset.

It can be done using the method in the question above, i.e.setting a limit on y axis. We can also filter out the outlier in the first place.

victims_location_type_1 <- 
  mass_shootings %>%
  select(location_type,
         total_victims) %>% 
  filter(total_victims!=604)

print(victims_location_type_1)

## # A tibble: 124 × 2
##    location_type total_victims
##    <chr>                 <dbl>
##  1 School                   11
##  2 Workplace                 9
##  3 Workplace                15
##  4 Workplace                 5
##  5 Workplace                10
##  6 Workplace                 9
##  7 Workplace                 4
##  8 Workplace                 5
##  9 Other                     7
## 10 Military                 11
## # ℹ 114 more rows
…
White and Latino shooters: in most cases, fatalities caused by latino shooters are also smaller than that of white shooters. They are also more concentrated on the left side of the plot, compared to that caused by white shooters.

See density plot below.

#Create a table to show shootings fatalities by shooters race
fatalities_race <- 
  mass_shootings %>%
  #filter out data that is not NA in race
  filter(!is.na(race)) %>%
  select(fatalities, race)

print(fatalities_race)

## # A tibble: 114 × 2
##    fatalities race 
##         <dbl> <chr>
##  1          8 White
##  2          8 White
##  3          5 Black
##  4          4 Black
##  5          7 White
##  6          9 White
##  7         22 White
##  8         12 Black
##  9          5 Black
## 10          3 White
## # ℹ 104 more rows
…
See bar plots below.

#Create a table that shows all three variables above
mental_victims_location <- 
  mass_shootings %>% 
  #filter out NAs
  filter(!is.na(prior_mental_illness)) %>% 
  select(prior_mental_illness,
         total_victims,
         location_type)

print(mental_victims_location)

## # A tibble: 79 × 3
##    prior_mental_illness total_victims location_type
##    <chr>                        <dbl> <chr>        
##  1 Yes                              9 Workplace    
##  2 Yes                             15 Workplace    
##  3 Yes                             10 Workplace    
##  4 Yes                             32 Other        
##  5 Yes                             11 Workplace    
##  6 Yes                              5 Workplace    
##  7 Yes                             34 Other        
##  8 Yes                              5 Workplace    
##  9 Yes                              8 Other        
## 10 Yes                              3 Workplace    
## # ℹ 69 more rows
…
